<?xml version="1.0" encoding="utf-8"?>
<!-- Generator: Adobe Illustrator 18.0.0, SVG Export Plug-In . SVG Version: 6.00 Build 0)  -->
<!DOCTYPE svg PUBLIC "-//W3C//DTD SVG 1.1//EN" "http://www.w3.org/Graphics/SVG/1.1/DTD/svg11.dtd" [
	<!ENTITY ns_flows "http://ns.adobe.com/Flows/1.0/">
	<!ENTITY ns_extend "http://ns.adobe.com/Extensibility/1.0/">
	<!ENTITY ns_ai "http://ns.adobe.com/AdobeIllustrator/10.0/">
	<!ENTITY ns_graphs "http://ns.adobe.com/Graphs/1.0/">
]>
<svg version="1.1" id="Layer_1" xmlns:x="&ns_extend;" xmlns:i="&ns_ai;" xmlns:graph="&ns_graphs;"
	 xmlns="http://www.w3.org/2000/svg" xmlns:xlink="http://www.w3.org/1999/xlink" xmlns:a="http://ns.adobe.com/AdobeSVGViewerExtensions/3.0/"
	 x="0px" y="0px" viewBox="0 0 62 62" enable-background="new 0 0 62 62" xml:space="preserve">
<g>
	<circle fill="#918E34" cx="30.6" cy="31.4" r="31"/>
	<path fill="#FFFFFF" d="M34,32.9c-0.1,0-0.2,0.1-0.3,0.1l0,0c0,0-1.2,1.1-3.1,1.1c-1.9,0-3.1-1.1-3.1-1.1l0,0
		c-0.1-0.1-0.2-0.1-0.3-0.1c-2.3,0-4,0.7-5.3,2.2c-2.6,3-1.9,8.1-1.9,8.3c0,0.2,0.2,0.4,0.4,0.4h20.2c0.2,0,0.4-0.2,0.4-0.4
		c0-0.2,0.7-5.3-1.9-8.3C38,33.7,36.2,32.9,34,32.9z M30.6,35c0.9,0,1.7-0.2,2.3-0.5l-2.3,4.8l-2.3-4.8C28.9,34.8,29.7,35,30.6,35z
		 M40.3,42.9H20.9c-0.1-1.2-0.2-5,1.7-7.3c1-1.2,2.5-1.8,4.3-1.9l3.2,6.7c0.1,0.3,0.6,0.3,0.8,0l3.2-6.7c1.9,0.1,3.3,0.7,4.3,1.9
		C40.6,37.9,40.4,41.7,40.3,42.9z M30.6,31.5c3.1,0,5.7-2.6,5.7-5.7s-2.6-5.7-5.7-5.7s-5.7,2.6-5.7,5.7S27.5,31.5,30.6,31.5z
		 M30.6,21c2.7,0,4.8,2.2,4.8,4.8s-2.2,4.8-4.8,4.8c-2.7,0-4.8-2.2-4.8-4.8C25.8,23.1,28,21,30.6,21z M48.7,29.7
		c-0.9-1-2.2-1.6-3.8-1.6c0,0,0,0,0,0c-0.1,0-0.1,0-0.2,0.1c0,0,0,0-0.1,0c0,0,0,0-0.1,0c0,0-0.8,0.7-2.1,0.7
		c-1.3,0-2.1-0.7-2.1-0.7c0,0,0,0-0.1,0c0,0,0,0,0,0c-0.1,0-0.1-0.1-0.2-0.1l0,0h0l0,0c-2.5,0-4.1,1.2-4.9,3.5
		c-0.1,0.2,0.1,0.5,0.3,0.5c0.2,0.1,0.5-0.1,0.5-0.3c0.6-1.9,1.9-2.8,3.8-2.9l2.3,4.7c0.1,0.1,0.2,0.2,0.4,0.2
		c0.2,0,0.3-0.1,0.4-0.2l2.3-4.7c1.2,0.1,2.2,0.5,2.9,1.3c1.3,1.5,1.3,4,1.2,4.9h-7.6c-0.2,0-0.4,0.2-0.4,0.4s0.2,0.4,0.4,0.4h8
		c0.2,0,0.4-0.2,0.4-0.4C50.1,35.5,50.6,31.9,48.7,29.7z M42.5,32.5l-1.4-2.9c0.4,0.1,0.8,0.2,1.4,0.2c0.5,0,1-0.1,1.4-0.2
		L42.5,32.5z M42.5,27.4c2.3,0,4.1-1.9,4.1-4.1s-1.9-4.1-4.1-4.1c-2.3,0-4.1,1.9-4.1,4.1S40.2,27.4,42.5,27.4z M42.5,19.9
		c1.8,0,3.3,1.5,3.3,3.3c0,1.8-1.5,3.3-3.3,3.3c-1.8,0-3.3-1.5-3.3-3.3C39.2,21.4,40.7,19.9,42.5,19.9z M19.6,35.2H12
		c-0.1-0.9-0.1-3.4,1.2-4.9c0.7-0.8,1.7-1.2,2.9-1.3l2.3,4.7c0.1,0.3,0.6,0.3,0.8,0l2.3-4.7c1.9,0.1,3.2,1.1,3.8,2.9
		c0.1,0.2,0.3,0.4,0.5,0.3c0.2-0.1,0.4-0.3,0.3-0.5c-0.7-2.3-2.4-3.5-4.9-3.5c0,0,0,0,0,0c-0.1,0-0.1,0-0.2,0.1c0,0,0,0-0.1,0
		c0,0,0,0-0.1,0c0,0-0.8,0.7-2.1,0.7c-1.3,0-2.1-0.7-2.1-0.7c0,0,0,0-0.1,0c0,0,0,0,0,0c-0.1,0-0.1-0.1-0.2-0.1l0,0h0c0,0,0,0,0,0
		c-1.6,0-2.9,0.5-3.8,1.6c-1.9,2.2-1.4,5.8-1.4,6c0,0.2,0.2,0.4,0.4,0.4h8c0.2,0,0.4-0.2,0.4-0.4C20,35.4,19.8,35.2,19.6,35.2z
		 M18.8,29.9c0.5,0,1-0.1,1.4-0.2l-1.4,2.9l-1.4-2.9C17.8,29.8,18.2,29.9,18.8,29.9z M18.8,27.4c2.3,0,4.1-1.9,4.1-4.1
		s-1.9-4.1-4.1-4.1c-2.3,0-4.1,1.9-4.1,4.1C14.6,25.5,16.5,27.4,18.8,27.4z M18.8,19.9c1.8,0,3.3,1.5,3.3,3.3c0,1.8-1.5,3.3-3.3,3.3
		c-1.8,0-3.3-1.5-3.3-3.3C15.5,21.4,16.9,19.9,18.8,19.9z"/>
</g>
</svg>
